{
  "orgName": "testing",
  "edition": "Enterprise",
  "description": "DOH Testing",
  "hasSampleData": false,
  "features": ["PersonAccounts"],
  "settings": {
    "apex": {
      "enableDisableParallelApexTesting": true,
      "enableAggregateCodeCoverageOnly": true
    },
    "mobileSettings": {
      "enableS1EncryptedStoragePref2": false
    }
  }
}
